Informational Output for PART: C:\WORK\NX11\MACH\resource\library\machine\installed_machines\CTX_gamma_2000_TC\sample\ideal_plm_test\UTEST_PART_setup_1.prt
Created By:    a.mityuk
Creation Date: Thu Feb 14 10:46:20 2019
===============================================

+++MOM WARNING+++
Info: Потеряно событие: Имя события: WIZD_mill_planar__planar_profile


+++MOM WARNING+++
Info: Потеряно событие: Имя события: WIZD_mill_multi_axis__sequential_mill


+++MOM WARNING+++
Info: Потеряно событие: Имя события: WIZD_mill_multi_axis__mill_user


+++MOM WARNING+++
Info: Потеряно событие: Имя события: WIZD_mill_multi_axis__generic_motion

